Path,Account Type,Account Name,Display Name,Security Identifier,Parent Group,Access Type,Inherited,Owner,Basic Permissions,Access Scope
C:\Program Files,Group,BUILTIN\Administrators,Administrators,S-1-5-32-544,,Allow,FALSE,NT SERVICE\TrustedInstaller,Full control,Subfolders and files only
C:\Program Files,Group,BUILTIN\Administrators,Administrators,S-1-5-32-544,,Allow,FALSE,NT SERVICE\TrustedInstaller,Modify,This folder only
C:\Program Files,Group,APPLICATION PACKAGE AUTHORITY\ALL APPLICATION PACKAGES,ALL APPLICATION PACKAGES,S-1-15-2-1,,Allow,FALSE,NT SERVICE\TrustedInstaller,Read and execute,"This folder, subfolders, and files"
C:\Program Files,Group,APPLICATION PACKAGE AUTHORITY\ALL RESTRICTED APPLICATION PACKAGES,ALL RESTRICTED APPLICATION PACKAGES,S-1-15-2-2,,Allow,FALSE,NT SERVICE\TrustedInstaller,Read and execute,"This folder, subfolders, and files"
C:\Program Files,User,CREATOR OWNER,CREATOR OWNER,S-1-3-0,,Allow,FALSE,NT SERVICE\TrustedInstaller,Full control,Subfolders and files only
C:\Program Files,User,NT AUTHORITY\SYSTEM,SYSTEM,S-1-5-18,,Allow,FALSE,NT SERVICE\TrustedInstaller,Full control,Subfolders and files only
C:\Program Files,User,NT AUTHORITY\SYSTEM,SYSTEM,S-1-5-18,,Allow,FALSE,NT SERVICE\TrustedInstaller,Modify,This folder only
C:\Program Files,Group,NT SERVICE\TrustedInstaller,TrustedInstaller,S-1-5-80-956008885-3418522649-1831038044-1853292631-2271478464,,Allow,FALSE,NT SERVICE\TrustedInstaller,Full control,This folder and subfolders
C:\Program Files,Group,BUILTIN\Users,Users,S-1-5-32-545,,Allow,FALSE,NT SERVICE\TrustedInstaller,Read and execute,"This folder, subfolders, and files"
C:\Program Files\Box,Group,BUILTIN\Administrators,Administrators,S-1-5-32-544,,Allow,TRUE,NT AUTHORITY\SYSTEM,Full control,"This folder, subfolders, and files"
C:\Program Files\Box,Group,APPLICATION PACKAGE AUTHORITY\ALL APPLICATION PACKAGES,ALL APPLICATION PACKAGES,S-1-15-2-1,,Allow,TRUE,NT AUTHORITY\SYSTEM,Read and execute,"This folder, subfolders, and files"
C:\Program Files\Box,Group,APPLICATION PACKAGE AUTHORITY\ALL RESTRICTED APPLICATION PACKAGES,ALL RESTRICTED APPLICATION PACKAGES,S-1-15-2-2,,Allow,TRUE,NT AUTHORITY\SYSTEM,Read and execute,"This folder, subfolders, and files"
C:\Program Files\Box,User,CREATOR OWNER,CREATOR OWNER,S-1-3-0,,Allow,TRUE,NT AUTHORITY\SYSTEM,Full control,Subfolders and files only
C:\Program Files\Box,User,NT AUTHORITY\SYSTEM,SYSTEM,S-1-5-18,,Allow,TRUE,NT AUTHORITY\SYSTEM,Full control,"This folder, subfolders, and files"
C:\Program Files\Box,Group,NT SERVICE\TrustedInstaller,TrustedInstaller,S-1-5-80-956008885-3418522649-1831038044-1853292631-2271478464,,Deny,TRUE,NT AUTHORITY\SYSTEM,Full control,This folder and subfolders
C:\Program Files\Box,Group,BUILTIN\Users,Users,S-1-5-32-545,,Allow,TRUE,NT AUTHORITY\SYSTEM,Read and execute,"This folder, subfolders, and files"
C:\Program Files\Common Files,Group,BUILTIN\Administrators,Administrators,S-1-5-32-544,,Allow,FALSE,NT SERVICE\TrustedInstaller,Full control,Subfolders and files only
C:\Program Files\Common Files,Group,BUILTIN\Administrators,Administrators,S-1-5-32-544,,Allow,FALSE,NT SERVICE\TrustedInstaller,Modify,This folder only
C:\Program Files\Common Files,Group,APPLICATION PACKAGE AUTHORITY\ALL APPLICATION PACKAGES,ALL APPLICATION PACKAGES,S-1-15-2-1,,Allow,FALSE,NT SERVICE\TrustedInstaller,Read and execute,"This folder, subfolders, and files"
C:\Program Files\Common Files,Group,APPLICATION PACKAGE AUTHORITY\ALL RESTRICTED APPLICATION PACKAGES,ALL RESTRICTED APPLICATION PACKAGES,S-1-15-2-2,,Allow,FALSE,NT SERVICE\TrustedInstaller,Read and execute,"This folder, subfolders, and files"
C:\Program Files\Common Files,User,CREATOR OWNER,CREATOR OWNER,S-1-3-0,,Allow,FALSE,NT SERVICE\TrustedInstaller,Full control,Subfolders and files only
C:\Program Files\Common Files,User,NT AUTHORITY\SYSTEM,SYSTEM,S-1-5-18,,Allow,FALSE,NT SERVICE\TrustedInstaller,Full control,Subfolders and files only
C:\Program Files\Common Files,User,NT AUTHORITY\SYSTEM,SYSTEM,S-1-5-18,,Allow,FALSE,NT SERVICE\TrustedInstaller,Modify,This folder only
C:\Program Files\Common Files,Group,NT SERVICE\TrustedInstaller,TrustedInstaller,S-1-5-80-956008885-3418522649-1831038044-1853292631-2271478464,,Allow,FALSE,NT SERVICE\TrustedInstaller,Full control,This folder and subfolders
C:\Program Files\Common Files,Group,BUILTIN\Users,Users,S-1-5-32-545,,Allow,FALSE,NT SERVICE\TrustedInstaller,Read and execute,"This folder, subfolders, and files"
